…
│ score          │ BIGINT      │ YES     │         │         │         │
│ token_count    │ BIGINT      │ YES     │         │         │         │
│ kind           │ VARCHAR     │ YES     │         │         │         │
│ language       │ VARCHAR     │ YES     │         │         │         │
│ language_score │ DOUBLE      │ YES     │         │         │         │
│ media_urls     │ INTEGER[]   │ YES     │         │         │         │
├────────────────┴─────────────┴─────────┴─────────┴─────────┴─────────┤
│ 14 rows                                                    6 columns │
└──────────────────────────────────────────────────────────────────────┘
D SELECT author, sum(language_score) sum_of_language_score
      FROM reddit_comments
      GROUP BY author
      ORDER BY sum_of_language_score DESC;
100% ▕████████████████████████████████████████████████████████████▏
┌──────────────────────┬───────────────────────┐
│        author        │ sum_of_language_score │
│       varchar        │        double         │
├──────────────────────┼───────────────────────┤
│ [deleted]            │     968373.2668000124 │
│ AutoModerator        │     85628.46609999996 │
│ avatarbot            │             5157.3868 │
│ MTGCardFetcher       │    3206.6262999999994 │
│ RemindMeBot          │    1214.7445000000014 │
│ romance-bot          │    1211.1374999999996 │
│ SaveVideo            │    1168.7045000000007 │
│ sneakpeekbot         │             1136.4439 │
│ ApplePitou           │             1121.2204 │
│ exclaim_bot          │     929.4596000000001 │
│ alphabet_order_bot   │     809.4385999999998 │
│ ChrisRageIsBack      │     787.5195999999999 │
│ -SofaKingVote-       │     736.3642999999995 │
│ Paid-Not-Payed-Bot   │     736.0106000000002 │
│ vic2moh              │     719.9392000000003 │
│ _Noorie              │              706.0886 │
│ CatStroking          │     699.8692999999998 │
│ deport_racists_next  │     689.1381000000002 │
│ VettedBot            │     666.1939000000001 │
│ B0tRank              │     662.1663000000005 │
│   ·                  │                   ·   │
│   ·                  │                   ·   │
│   ·                  │                   ·   │
│ prakow               │                0.0475 │
│ BitRepresentative387 │                0.0475 │
│ Objective_Minimum_62 │                0.0475 │
│ Royal42Smallsy       │                0.0475 │
│ Professional_Deer_82 │                0.0463 │
│ OptionsJohnny        │                0.0463 │
│ wizardfromthem00n    │                0.0458 │
│ Kaynotfoundwastaken  │                0.0458 │
│ Raaz_s               │                0.0453 │
│ Nicklovin0571        │                0.0428 │
│ Massive_Claim_7931   │                 0.042 │
│ stockstosocks212     │                 0.042 │
│ Acidseyes420         │                 0.042 │
│ oh_my_gra            │                 0.042 │
│ DecentPerception6280 │                 0.042 │
│ Angelnoodlepup       │                 0.042 │
│ FriendlyAct4925      │                0.0378 │
│ Grouchy-Lynx4983     │                0.0313 │
│ KillerFusion1212     │                0.0313 │
│ Spiritual_Bath_9143  │                0.0313 │
├──────────────────────┴───────────────────────┤
│ 3558744 rows (40 shown)            2 columns │
└──────────────────────────────────────────────┘
…
